module github.com/youtous/caddy-consul-docker/v2

go 1.18

require (
	github.com/caddyserver/caddy/v2 v2.5.1
	github.com/hundertzehn/caddy-ratelimit v0.0.5
	github.com/lucaslorentz/caddy-docker-proxy/v2 v2.7.0
	github.com/mholt/caddy-l4 v0.0.0-20220503192553-2ecee94d269f
	github.com/pteich/caddy-tlsconsul v1.4.0
	github.com/sillygod/cdp-cache v0.4.6
)

require (
	filippo.io/edwards25519 v1.0.0-rc.1 // indirect
	github.com/AndreasBriese/bbloom v0.0.0-20190825152654-46b345b51c96 // indirect
	github.com/Azure/go-ansiterm v0.0.0-20210617225240-d185dfc1b5a1 // indirect
	github.com/BurntSushi/toml v1.0.0 // indirect
	github.com/Masterminds/goutils v1.1.1 // indirect
	github.com/Masterminds/semver/v3 v3.1.1 // indirect
	github.com/Masterminds/sprig/v3 v3.2.2 // indirect
	github.com/Microsoft/go-winio v0.5.1 // indirect
	github.com/alecthomas/chroma v0.10.0 // indirect
	github.com/antlr/antlr4 v0.0.0-20200503195918-621b933c7a7f // indirect
	github.com/armon/go-metrics v0.3.10 // indirect
	github.com/aryann/difflib v0.0.0-20210328193216-ff5ff6dc229b // indirect
	github.com/beorn7/perks v1.0.1 // indirect
	github.com/caddyserver/certmagic v0.16.1 // indirect
	github.com/cenkalti/backoff/v4 v4.1.2 // indirect
	github.com/cespare/xxhash v1.1.0 // indirect
	github.com/cespare/xxhash/v2 v2.1.2 // indirect
	github.com/cheekybits/genny v1.0.0 // indirect
	github.com/chzyer/readline v0.0.0-20180603132655-2972be24d48e // indirect
	github.com/containerd/continuity v0.2.2 // indirect
	github.com/cpuguy83/go-md2man/v2 v2.0.0 // indirect
	github.com/dgraph-io/badger v1.6.2 // indirect
	github.com/dgraph-io/badger/v2 v2.2007.4 // indirect
	github.com/dgraph-io/ristretto v0.0.4-0.20200906165740-41ebdbffecfd // indirect
	github.com/dgryski/go-farm v0.0.0-20200201041132-a6ae2369ad13 // indirect
	github.com/dlclark/regexp2 v1.4.0 // indirect
	github.com/docker/distribution v2.8.1+incompatible // indirect
	github.com/docker/docker v20.10.16+incompatible // indirect
	github.com/docker/go-connections v0.4.0 // indirect
	github.com/docker/go-units v0.4.0 // indirect
	github.com/dustin/go-humanize v1.0.1-0.20200219035652-afde56e7acac // indirect
	github.com/fatih/color v1.13.0 // indirect
	github.com/felixge/httpsnoop v1.0.2 // indirect
	github.com/fsnotify/fsnotify v1.5.1 // indirect
	github.com/go-chi/chi v4.1.2+incompatible // indirect
	github.com/go-kit/kit v0.10.0 // indirect
	github.com/go-logfmt/logfmt v0.5.0 // indirect
	github.com/go-logr/logr v1.2.2 // indirect
	github.com/go-logr/stdr v1.2.2 // indirect
	github.com/go-redis/redis v6.15.9+incompatible // indirect
	github.com/go-sql-driver/mysql v1.6.0 // indirect
	github.com/go-task/slim-sprig v0.0.0-20210107165309-348f09dbbbc0 // indirect
	github.com/gogo/protobuf v1.3.2 // indirect
	github.com/golang/protobuf v1.5.2 // indirect
	github.com/golang/snappy v0.0.4 // indirect
	github.com/google/cel-go v0.7.3 // indirect
	github.com/google/uuid v1.3.0 // indirect
	github.com/grpc-ecosystem/grpc-gateway v1.16.0 // indirect
	github.com/hashicorp/consul/api v1.12.0 // indirect
	github.com/hashicorp/go-cleanhttp v0.5.2 // indirect
	github.com/hashicorp/go-hclog v1.0.0 // indirect
	github.com/hashicorp/go-immutable-radix v1.3.1 // indirect
	github.com/hashicorp/go-rootcerts v1.0.2 // indirect
	github.com/hashicorp/golang-lru v0.5.4 // indirect
	github.com/hashicorp/serf v0.9.6 // indirect
	github.com/huandu/xstrings v1.3.2 // indirect
	github.com/imdario/mergo v0.3.12 // indirect
	github.com/jackc/chunkreader/v2 v2.0.1 // indirect
	github.com/jackc/pgconn v1.10.1 // indirect
	github.com/jackc/pgio v1.0.0 // indirect
	github.com/jackc/pgpassfile v1.0.0 // indirect
	github.com/jackc/pgproto3/v2 v2.2.0 // indirect
	github.com/jackc/pgservicefile v0.0.0-20200714003250-2b9c44734f2b // indirect
	github.com/jackc/pgtype v1.9.0 // indirect
	github.com/jackc/pgx/v4 v4.14.0 // indirect
	github.com/klauspost/compress v1.15.0 // indirect
	github.com/klauspost/cpuid/v2 v2.0.12 // indirect
	github.com/libdns/libdns v0.2.1 // indirect
	github.com/lucas-clemente/quic-go v0.26.0 // indirect
	github.com/mailgun/groupcache/v2 v2.2.1 // indirect
	github.com/manifoldco/promptui v0.9.0 // indirect
	github.com/marten-seemann/qpack v0.2.1 // indirect
	github.com/marten-seemann/qtls-go1-16 v0.1.5 // indirect
	github.com/marten-seemann/qtls-go1-17 v0.1.1 // indirect
	github.com/marten-seemann/qtls-go1-18 v0.1.1 // indirect
	github.com/mastercactapus/proxyprotocol v0.0.3 // indirect
	github.com/mattn/go-colorable v0.1.12 // indirect
	github.com/mattn/go-isatty v0.0.14 // indirect
	github.com/matttproud/golang_protobuf_extensions v1.0.2-0.20181231171920-c182affec369 // indirect
	github.com/mgutz/ansi v0.0.0-20200706080929-d51e80ef957d // indirect
	github.com/mholt/acmez v1.0.2 // indirect
	github.com/micromdm/scep/v2 v2.1.0 // indirect
	github.com/miekg/dns v1.1.47 // indirect
	github.com/mitchellh/copystructure v1.2.0 // indirect
	github.com/mitchellh/go-homedir v1.1.0 // indirect
	github.com/mitchellh/go-ps v1.0.0 // indirect
	github.com/mitchellh/mapstructure v1.4.3 // indirect
	github.com/mitchellh/reflectwalk v1.0.2 // indirect
	github.com/nxadm/tail v1.4.8 // indirect
	github.com/onsi/ginkgo v1.16.5 // indirect
	github.com/onsi/gomega v1.15.0 // indirect
	github.com/opencontainers/go-digest v1.0.0 // indirect
	github.com/opencontainers/image-spec v1.0.3-0.20211202183452-c5a74bcca799 // indirect
	github.com/opencontainers/runc v1.1.1 // indirect
	github.com/pkg/errors v0.9.1 // indirect
	github.com/pquerna/cachecontrol v0.1.0 // indirect
	github.com/prometheus/client_golang v1.12.1 // indirect
	github.com/prometheus/client_model v0.2.0 // indirect
	github.com/prometheus/common v0.32.1 // indirect
	github.com/prometheus/procfs v0.7.3 // indirect
	github.com/pteich/errors v1.0.1 // indirect
	github.com/rs/xid v1.2.1 // indirect
	github.com/russross/blackfriday/v2 v2.0.1 // indirect
	github.com/segmentio/fasthash v1.0.3 // indirect
	github.com/shopspring/decimal v1.2.0 // indirect
	github.com/shurcooL/sanitized_anchor_name v1.0.0 // indirect
	github.com/sirupsen/logrus v1.8.1 // indirect
	github.com/slackhq/nebula v1.5.2 // indirect
	github.com/smallstep/certificates v0.19.0 // indirect
	github.com/smallstep/cli v0.18.0 // indirect
	github.com/smallstep/nosql v0.4.0 // indirect
	github.com/smallstep/truststore v0.11.0 // indirect
	github.com/spf13/cast v1.4.1 // indirect
	github.com/stoewer/go-strcase v1.2.0 // indirect
	github.com/tailscale/tscert v0.0.0-20220125204807-4509a5fbaf74 // indirect
	github.com/urfave/cli v1.22.5 // indirect
	github.com/yuin/goldmark v1.4.8 // indirect
	github.com/yuin/goldmark-highlighting v0.0.0-20220208100518-594be1970594 // indirect
	go.etcd.io/bbolt v1.3.6 // indirect
	go.mozilla.org/pkcs7 v0.0.0-20210826202110-33d05740a352 // indirect
	go.opentelemetry.io/contrib/instrumentation/net/http/otelhttp v0.29.0 // indirect
	go.opentelemetry.io/otel v1.4.0 // indirect
	go.opentelemetry.io/otel/exporters/otlp/internal/retry v1.4.0 // indirect
	go.opentelemetry.io/otel/exporters/otlp/otlptrace v1.4.0 // indirect
	go.opentelemetry.io/otel/exporters/otlp/otlptrace/otlptracegrpc v1.4.0 // indirect
	go.opentelemetry.io/otel/internal/metric v0.27.0 // indirect
	go.opentelemetry.io/otel/metric v0.27.0 // indirect
	go.opentelemetry.io/otel/sdk v1.4.0 // indirect
	go.opentelemetry.io/otel/trace v1.4.0 // indirect
	go.opentelemetry.io/proto/otlp v0.12.0 // indirect
	go.step.sm/cli-utils v0.7.0 // indirect
	go.step.sm/crypto v0.16.1 // indirect
	go.step.sm/linkedca v0.15.0 // indirect
	go.uber.org/atomic v1.9.0 // indirect
	go.uber.org/multierr v1.8.0 // indirect
	go.uber.org/zap v1.21.0 // indirect
	golang.org/x/crypto v0.0.0-20220321153916-2c7772ba3064 // indirect
	golang.org/x/mod v0.6.0-dev.0.20220106191415-9b9b3d81d5e3 // indirect
	golang.org/x/net v0.0.0-20220325170049-de3da57026de // indirect
	golang.org/x/sys v0.0.0-20220325203850-36772127a21f // indirect
	golang.org/x/term v0.0.0-20210927222741-03fcf44c2211 // indirect
	golang.org/x/text v0.3.8-0.20211004125949-5bd84dd9b33b // indirect
	golang.org/x/time v0.0.0-20210723032227-1f47c861a9ac // indirect
	golang.org/x/tools v0.1.10 // indirect
	golang.org/x/xerrors v0.0.0-20200804184101-5ec99f83aff1 // indirect
	google.golang.org/genproto v0.0.0-20220222213610-43724f9ea8cf // indirect
	google.golang.org/grpc v1.44.0 // indirect
	google.golang.org/protobuf v1.28.0 // indirect
	gopkg.in/natefinch/lumberjack.v2 v2.0.0 // indirect
	gopkg.in/square/go-jose.v2 v2.6.0 // indirect
	gopkg.in/tomb.v1 v1.0.0-20141024135613-dd632973f1e7 // indirect
	gopkg.in/yaml.v2 v2.4.0 // indirect
	howett.net/plist v1.0.0 // indirect
)
